module gitlab.com/golang-studies/mars-rover

go 1.20

require (
	github.com/golang/protobuf v1.5.2 // indirect
	github.com/joho/godotenv v1.5.1 // indirect
	golang.org/x/net v0.5.0 // indirect
	golang.org/x/sys v0.4.0 // indirect
	golang.org/x/text v0.6.0 // indirect
	google.golang.org/genproto v0.0.0-20230110181048-76db0878b65f // indirect
	google.golang.org/grpc v1.53.0 // indirect
	google.golang.org/protobuf v1.28.1 // indirect
)
